{
    "projection": {
        "movie": { "required": true, "minLength": 3, "maxLength": 255 },
        "dabing": { "required": true },
        "price": {
            "required": true,
            "number": true,
            "minValue": 0,
            "maxValue": 500
        },
        "date": {
            "required": true
        },
        "cinema": { "required": true },
        "cinemaHall": { "required": true }
    },
    "registration": {
        "firstName": { "required": true, "minLength": 1, "maxLength": 30 },
        "lastName": { "required": true, "minLength": 1, "maxLength": 30 },
        "email": { "required": true, "email": true },
        "password": { "required": true, "minLength": 6, "maxLength": 255 },
        "password_control": { "required": true, "sameAs": "password" }
    },
    "movie": {
        "name": { "required": true, "minLength": 1, "maxLength": 30 },
        "length": { "required": true },
        "ageRate": { "required": true },
        "description": { "required": true }
    },
    "editUser": {
        "firstName": { "required": true, "minLength": 1, "maxLength": 30 },
        "lastName": { "required": true, "minLength": 1, "maxLength": 30 },
        "email": { "required": true, "email": true }
    },
    "login": {
        "email": { "required": true, "email": true },
        "password": { "required": true, "minLength": 6, "maxLength": 255 }
    }
}
