{
	"info": {
		"_postman_id": "96dcb146-7db7-4df6-bc47-b778e56b07dd",
		"name": "Persons",
		"schema": "https://schema.getpostman.com/json/collection/v2.1.0/collection.json"
	},
	"item": [
		{
			"name": "localhost:8080/rest/persons",
			"request": {
				"method": "GET",
				"header": [],
				"url": {
					"raw": "localhost:8080/rest/persons",
					"host": [
						"localhost"
					],
					"port": "8080",
					"path": [
						"rest",
						"persons"
					]
				},
				"description": "Vypise vsechny Persons"
			},
			"response": []
		},
		{
			"name": "localhost:8080/rest/persons/2",
			"request": {
				"method": "GET",
				"header": [],
				"url": {
					"raw": "localhost:8080/rest/persons/2",
					"host": [
						"localhost"
					],
					"port": "8080",
					"path": [
						"rest",
						"persons",
						"2"
					]
				},
				"description": "Vypise Persona s id = 1"
			},
			"response": []
		},
		{
			"name": "localhost:8080/rest/persons",
			"request": {
				"auth": {
					"type": "noauth"
				},
				"method": "POST",
				"header": [
					{
						"key": "Content-Type",
						"name": "Content-Type",
						"value": "application/json",
						"type": "text"
					},
					{
						"key": "username",
						"value": "",
						"type": "text",
						"disabled": true
					}
				],
				"body": {
					"mode": "raw",
					"raw": "    {\n        \"name\": \"User3\",\n        \"surname\": \"User\",\n        \"email\": \"user3@gmail.com\",\n        \"password\": \"12345678\",\n        \"role\": \"PERSON\",\n        \"person\": true\n    }"
				},
				"url": {
					"raw": "localhost:8080/rest/persons",
					"host": [
						"localhost"
					],
					"port": "8080",
					"path": [
						"rest",
						"persons"
					]
				},
				"description": "Registruje usera"
			},
			"response": []
		},
		{
			"name": "localhost:8080/rest/persons/951",
			"request": {
				"auth": {
					"type": "noauth"
				},
				"method": "PUT",
				"header": [
					{
						"key": "Content-Type",
						"name": "Content-Type",
						"value": "application/json",
						"type": "text"
					},
					{
						"key": "username",
						"value": "",
						"type": "text",
						"disabled": true
					}
				],
				"body": {
					"mode": "raw",
					"raw": "    {\n    \t\"id\" : 951,\n        \"name\": \"User7\",\n        \"surname\": \"Userovich6\",\n        \"email\": \"user6@gmail.com \",\n        \"password\": \"12345678\",\n        \"role\": \"PERSON\",\n        \"admin\": false,\n        \"employee\": false,\n        \"person\": true,\n        \"username\": \"user6@gmail.com \"\n    }"
				},
				"url": {
					"raw": "localhost:8080/rest/persons/951",
					"host": [
						"localhost"
					],
					"port": "8080",
					"path": [
						"rest",
						"persons",
						"951"
					]
				}
			},
			"response": []
		}
	],
	"protocolProfileBehavior": {}
}