{
	"info": {
		"_postman_id": "8860b68f-95e4-43b6-8271-806eb5dfdd88",
		"name": "Projections",
		"schema": "https://schema.getpostman.com/json/collection/v2.1.0/collection.json"
	},
	"item": [
		{
			"name": "localhost:8080/rest/projections",
			"protocolProfileBehavior": {
				"disableBodyPruning": true
			},
			"request": {
				"auth": {
					"type": "basic",
					"basic": [
						{
							"key": "password",
							"value": "adm1n",
							"type": "string"
						},
						{
							"key": "username",
							"value": "ear-admin@kbss.felk.cvut.cz",
							"type": "string"
						}
					]
				},
				"method": "GET",
				"header": [
					{
						"key": "Content-Type",
						"name": "Content-Type",
						"value": "application/json",
						"type": "text"
					},
					{
						"key": "username",
						"value": "",
						"type": "text",
						"disabled": true
					}
				],
				"body": {
					"mode": "raw",
					"raw": ""
				},
				"url": {
					"raw": "localhost:8080/rest/projections?",
					"host": [
						"localhost"
					],
					"port": "8080",
					"path": [
						"rest",
						"projections"
					],
					"query": [
						{
							"key": "username",
							"value": "ear-admin@kbss.felk.cvut.cz",
							"disabled": true
						},
						{
							"key": "password",
							"value": "adm1n",
							"disabled": true
						}
					]
				},
				"description": "Vypise vsechny projekce"
			},
			"response": []
		},
		{
			"name": "localhost:8080/rest/projections/101",
			"protocolProfileBehavior": {
				"disableBodyPruning": true
			},
			"request": {
				"auth": {
					"type": "basic",
					"basic": [
						{
							"key": "password",
							"value": "adm1n",
							"type": "string"
						},
						{
							"key": "username",
							"value": "ear-admin@kbss.felk.cvut.cz",
							"type": "string"
						}
					]
				},
				"method": "GET",
				"header": [
					{
						"key": "Content-Type",
						"name": "Content-Type",
						"value": "application/json",
						"type": "text"
					},
					{
						"key": "username",
						"value": "",
						"type": "text",
						"disabled": true
					}
				],
				"body": {
					"mode": "raw",
					"raw": ""
				},
				"url": {
					"raw": "localhost:8080/rest/projections/101?",
					"host": [
						"localhost"
					],
					"port": "8080",
					"path": [
						"rest",
						"projections",
						"101"
					],
					"query": [
						{
							"key": "username",
							"value": "ear-admin@kbss.felk.cvut.cz",
							"disabled": true
						},
						{
							"key": "password",
							"value": "adm1n",
							"disabled": true
						}
					]
				},
				"description": "Vypise projekci s id = 1"
			},
			"response": []
		},
		{
			"name": "localhost:8080/rest/projections/date/2020-01-10",
			"protocolProfileBehavior": {
				"disableBodyPruning": true
			},
			"request": {
				"auth": {
					"type": "basic",
					"basic": [
						{
							"key": "password",
							"value": "adm1n",
							"type": "string"
						},
						{
							"key": "username",
							"value": "ear-admin@kbss.felk.cvut.cz",
							"type": "string"
						}
					]
				},
				"method": "GET",
				"header": [
					{
						"key": "Content-Type",
						"name": "Content-Type",
						"value": "application/json",
						"type": "text"
					},
					{
						"key": "username",
						"value": "",
						"type": "text",
						"disabled": true
					}
				],
				"body": {
					"mode": "raw",
					"raw": ""
				},
				"url": {
					"raw": "localhost:8080/rest/projections/date/2020-01-10?",
					"host": [
						"localhost"
					],
					"port": "8080",
					"path": [
						"rest",
						"projections",
						"date",
						"2020-01-10"
					],
					"query": [
						{
							"key": "username",
							"value": "ear-admin@kbss.felk.cvut.cz",
							"disabled": true
						},
						{
							"key": "password",
							"value": "adm1n",
							"disabled": true
						}
					]
				},
				"description": "Vypise projekce s datem 2020-01-10"
			},
			"response": []
		},
		{
			"name": "localhost:8080/rest/projections/cinema/Cinema1",
			"request": {
				"method": "GET",
				"header": [],
				"url": {
					"raw": "localhost:8080/rest/projections/cinema/Cinema1",
					"host": [
						"localhost"
					],
					"port": "8080",
					"path": [
						"rest",
						"projections",
						"cinema",
						"Cinema1"
					]
				},
				"description": "Vypise projekce v Cinema1"
			},
			"response": []
		},
		{
			"name": "localhost:8080/rest/projections/current",
			"request": {
				"method": "GET",
				"header": [],
				"url": {
					"raw": "localhost:8080/rest/projections/current",
					"host": [
						"localhost"
					],
					"port": "8080",
					"path": [
						"rest",
						"projections",
						"current"
					]
				},
				"description": "Vypise projekce, ktere se konaji ode dneska"
			},
			"response": []
		},
		{
			"name": "localhost:8080/rest/projections/movie/movie1",
			"request": {
				"method": "GET",
				"header": [],
				"url": {
					"raw": "localhost:8080/rest/projections/movie/movie1",
					"host": [
						"localhost"
					],
					"port": "8080",
					"path": [
						"rest",
						"projections",
						"movie",
						"movie1"
					]
				},
				"description": "Vypise projekce s filmem \"movie1\""
			},
			"response": []
		},
		{
			"name": "localhost:8080/rest/projections/101/statistics",
			"request": {
				"method": "GET",
				"header": [],
				"url": {
					"raw": "localhost:8080/rest/projections/101/statistics",
					"host": [
						"localhost"
					],
					"port": "8080",
					"path": [
						"rest",
						"projections",
						"101",
						"statistics"
					]
				},
				"description": "Vypise “Number of sold tickets is X !” pro danou projekci\n(sold tickets jsou takove tickets, ci rezervace je confirmed)"
			},
			"response": []
		},
		{
			"name": "localhost:8080/rest/projections/101/reservations",
			"request": {
				"method": "GET",
				"header": [],
				"url": {
					"raw": "localhost:8080/rest/projections/101/reservations",
					"host": [
						"localhost"
					],
					"port": "8080",
					"path": [
						"rest",
						"projections",
						"101",
						"reservations"
					]
				},
				"description": "Vypise vsechny rezervace na projekci s id = 1"
			},
			"response": []
		},
		{
			"name": "localhost:8080/rest/projections",
			"request": {
				"method": "POST",
				"header": [
					{
						"key": "Content-Type",
						"name": "Content-Type",
						"value": "application/json",
						"type": "text"
					}
				],
				"body": {
					"mode": "raw",
					"raw": "    {\n        \"dabing\": \"CZ\",\n        \"date\": \"2020-01-20\",\n        \"price\": 160,\n        \"time\": \"15:00\",\n        \"cinemahall\": {\"id\" : 1},\n        \"movie\": {\"id\" : 1}\n    }"
				},
				"url": {
					"raw": "localhost:8080/rest/projections",
					"host": [
						"localhost"
					],
					"port": "8080",
					"path": [
						"rest",
						"projections"
					]
				},
				"description": "Vytvori novou projekce"
			},
			"response": []
		},
		{
			"name": "localhost:8080/rest/projections/1/cancelUnconfirmedReservations",
			"request": {
				"method": "DELETE",
				"header": [],
				"url": {
					"raw": "localhost:8080/rest/projections/1/cancelUnconfirmedReservations",
					"host": [
						"localhost"
					],
					"port": "8080",
					"path": [
						"rest",
						"projections",
						"1",
						"cancelUnconfirmedReservations"
					]
				},
				"description": "Rusi nepotvrzene rezervace pro danou projekci"
			},
			"response": []
		}
	],
	"protocolProfileBehavior": {}
}